Produce a forecast from a solarModel object — solarModel_predict • solarr
…
    Note

    Version 1.0.0.

    Examples

model = solarModel$new(spec)
model$fit()
#> No outliers!
moments <- model$moments$conditional[14,]
object <- solarModel_predict(model, moments, ci = 0.01)
object
#> $grid
#> # A tibble: 100 × 4
#>        x pdf_Rt_mix pdf_Rt_mix_up pdf_Rt_mix_dw
#>    <dbl>      <dbl>         <dbl>         <dbl>
#>  1 0.216   0.000275      0.000275      1.65e-26
#>  2 0.239   0.00386       0.00386       3.99e-20
#>  3 0.262   0.0137        0.0137        8.19e-17
#>  4 0.285   0.0295        0.0295        1.19e-14
#>  5 0.308   0.0501        0.0501        4.46e-13
#>  6 0.331   0.0736        0.0736        7.34e-12
#>  7 0.354   0.0987        0.0987        7.02e-11
#>  8 0.377   0.124         0.124         4.58e-10
#>  9 0.400   0.149         0.149         2.25e- 9
#> 10 0.423   0.174         0.174         8.93e- 9
#> # ℹ 90 more rows
…
